WorldVertexTransition
{
	$basetexture Zup/ground/stone003
	$surfaceprop rock
	$bumpmap Zup/ground/stone003_normal
	$envmap env_cubemap
	$normalmapalphaenvmapmask 1
	$surfaceprop rock

	$basetexture2 Zup/ground/sand006
	$bumpmap2 Zup/ground/sand006_normal 
	$envmap2 env_cubemap
	$normalmapalphaenvmapmask2 1
	$envmapsaturation2 1
	$surfaceprop2 sand

	%tooltexture Zup/ground/blend_stone003_sand006

	$blendmodulatetexture Zup/ground/blend_stone003_sand006_mod
}


