"WorldVertexTransition"
{
	"$basetexture" "Zup/ground/stone010"
	"$bumpmap" "Zup/ground/stone010_normal"
	"$envmap" "env_cubemap"
	"$normalmapalphaenvmapmask" 1
	"$envmapsaturation" 1
	"$surfaceprop" "rock"
	"$basetexture2" "Zup/ground/soil001"
	"$bumpmap2" "Zup/ground/soil001_normal"
	"$envmap2" "env_cubemap"
	"$normalmapalphaenvmapmask2" 1
	"$envmapsaturation2" 1
	"$surfaceprop2" "mud"
	"%tooltexture" "Zup/ground/blend_stone010_soil001"
	"$blendmodulatetexture" "Zup/ground/blend_stone010_soil001_mod"
}