WorldVertexTransition
{
	$basetexture Zup/ground/stone009
	$surfaceprop rock
	$bumpmap Zup/ground/stone009_normal
	$envmap env_cubemap
	$normalmapalphaenvmapmask 1
	$surfaceprop rock

	$basetexture2 Zup/ground/sand009
	$bumpmap2 Zup/ground/sand009_normal 
	$envmap2 env_cubemap
	$normalmapalphaenvmapmask2 1
	$envmapsaturation2 1
	$surfaceprop2 sand

	%tooltexture Zup/ground/blend_stone009_sand009

	$blendmodulatetexture Zup/ground/blend_stone009_sand009_mod
}


